Análisis Demográfico con R - 2 Evaluación de información y pirámides
…
Para que funcione mejor, necesitamos que sexo sea una variable y una columna.

Vamos a utilizar tidyr::pivot_longer() para hacer “larga” nuestro data.frame

pob_uy %>% 
  tidyr::pivot_longer(cols = popM:pop,
                      values_to = "poblacion",
                      names_to = "sexo")

# A tibble: 22,119 × 7
   country_code name     year   age eda5  sexo  poblacion
          <int> <chr>   <int> <int> <fct> <chr>     <dbl>
 1          858 Uruguay  1949     0 [0,5) popM       22.3
 2          858 Uruguay  1949     0 [0,5) popF       21.4
 3          858 Uruguay  1949     0 [0,5) pop        43.7
 4          858 Uruguay  1949     1 [0,5) popM       21.8
 5          858 Uruguay  1949     1 [0,5) popF       21.3
 6          858 Uruguay  1949     1 [0,5) pop        43.1
 7          858 Uruguay  1949     2 [0,5) popM       21.8
 8          858 Uruguay  1949     2 [0,5) popF       21.5
 9          858 Uruguay  1949     2 [0,5) pop        43.3
10          858 Uruguay  1949     3 [0,5) popM       21.3
# ℹ 22,109 more rows
…
