Análisis Demográfico con R - 3 Cont. Pirámides y Lexis
…
3.3.1 Paquete {apyramid}

Necesita que tengamos los datos quinquenales.

No acepta funciones en las variables edad y sexo

pob_uy_long %>% 
  filter(year==2020) %>% 
  count(eda5, sexo, wt=poblacion)

# A tibble: 42 × 3
   eda5    sexo      n
   <fct>   <chr> <dbl>
 1 [0,5)   popF   97.3
 2 [0,5)   popM  103. 
 3 [5,10)  popF  115. 
 4 [5,10)  popM  121. 
 5 [10,15) popF  115. 
 6 [10,15) popM  121. 
 7 [15,20) popF  119. 
 8 [15,20) popM  124. 
 9 [20,25) popF  125. 
10 [20,25) popM  130. 
# ℹ 32 more rows
…
