Análisis Demográfico con R - 4 Tasas
…
Vamos a volverlo quinquenal:

est %<>%
 group_by(country_code, year, eda5) %>% 
  mutate(pop=sum(pop), 
         deaths_age=sum(deaths_age)) %>% 
  select(-age) %>% 
  ungroup() %>% 
  unique()

est

# A tibble: 44 × 6
   country_code name     year   pop deaths_age eda5   
          <int> <chr>   <int> <dbl>      <dbl> <fct>  
 1          858 Uruguay  1950  44.6      2.77  [0,1)  
 2          858 Uruguay  1950 171.       0.312 [1,5)  
 3          858 Uruguay  1950 205.       0.136 [5,10) 
 4          858 Uruguay  1950 201.       0.105 [10,15)
 5          858 Uruguay  1950 200.       0.225 [15,20)
 6          858 Uruguay  1950 195.       0.290 [20,25)
 7          858 Uruguay  1950 178.       0.305 [25,30)
 8          858 Uruguay  1950 155.       0.317 [30,35)
 9          858 Uruguay  1950 159.       0.465 [35,40)
10          858 Uruguay  1950 139.       0.611 [40,45)
# ℹ 34 more rows
…
