Análisis Demográfico con R - 5 Migración y tablas de vida
…
# Abel usa el paquete countrycode para generar regiones

f %>%
  mutate(
    orig = countrycode::countrycode(sourcevar = orig, # la variable de origen que tiene códigos
                                    custom_dict = dict_ims, # el diccionario a usar
                                    origin = "iso3c", # el tipo de abreviatura
                                    destination = "region"))  # que nos va a regresar

# A tibble: 307,833 × 9
   year0 orig   dest  sd_drop_neg sd_rev_neg mig_rate da_min_open da_min_closed
   <dbl> <chr>  <chr>       <dbl>      <dbl>    <dbl>       <dbl>         <dbl>
 1  1990 Africa BDI             0          0      0          0               0 
 2  1990 Africa BDI             0          0      0          0               0 
 3  1990 Africa BDI             0          0      0          0               0 
 4  1990 Africa BDI             0          0      0          0               0 
 5  1990 Africa BDI             0          0      0          0               0 
 6  1990 Africa BDI            30         30     75.7       51.3           207.
 7  1990 Africa BDI             0          0      0          0.03            0 
 8  1990 Africa BDI             0          0      0          0               0 
 9  1990 Africa BDI             0          0      0          0.06            0 
10  1990 Africa BDI             0          0      0          0               0 
# ℹ 307,823 more rows
# ℹ 1 more variable: da_pb_closed <dbl>
…
    orig = countrycode::countrycode(sourcevar = orig, # la variable de origen que tiene códigos
                                    custom_dict = dict_ims, # el diccionario a usar
                                    origin = "iso3c", # el tipo de abreviatura
                                    destination = "region"),  # que nos va a regresar
    dest = countrycode::countrycode(sourcevar = dest, 
                                    custom_dict = dict_ims,
                                    origin = "iso3c",
                                    destination = "region")
  ) %>%
  group_by(year0, orig, dest) %>%
  summarise_all(sum) %>%
  ungroup()
d

# A tibble: 216 × 9
   year0 orig   dest   sd_drop_neg sd_rev_neg mig_rate da_min_open da_min_closed
   <dbl> <chr>  <chr>        <dbl>      <dbl>    <dbl>       <dbl>         <dbl>
 1  1990 Africa Africa     4297155    7845806   5.47e6    6872677.      7728373.
 2  1990 Africa Asia        240464     258816   7.24e5     283708.       554047.
 3  1990 Africa Europe      555826     664496   1.91e6     830461.      2190967.
 4  1990 Africa Latin…        1505       2709   7.81e3       9043.        56747.
 5  1990 Africa North…      289058     301706   2.23e5     321650.       783334.
 6  1990 Africa Ocean…       21550      23570   6.59e4      30186.       165598.
 7  1990 Asia   Africa       94088     158903   2.00e5     102036.        93577.
 8  1990 Asia   Asia       3616112    8617460   1.44e7    6969956.     10337980.
 9  1990 Asia   Europe     1496141    2322839   5.48e6    2851352.      4214903.
10  1990 Asia   Latin…       14316      14343   1.07e5      20177.       136270.
# ℹ 206 more rows
# ℹ 1 more variable: da_pb_closed <dbl>
…
5.3.2 Flujos bilaterales

5.3.2.1 Gráficos circulaes

5.4 Diagramas

Vamos a usar “2015-2020 pseudo-Bayesian estimates for plotting” de la base de Guy Abel

pb <- d %>%
  filter(year0 == 2015) %>% # seleccionamos un año especifico
  mutate(flow = da_pb_closed/1e6) %>% # pasamos el flujo cerrado a miles
  select(orig, dest, flow) # necesitamos un objeto con estas tres variables
pb

# A tibble: 36 × 3
   orig   dest                               flow
   <chr>  <chr>                             <dbl>
 1 Africa Africa                           8.69  
 2 Africa Asia                             0.896 
 3 Africa Europe                           3.31  
 4 Africa Latin America and the Caribbean  0.0361
 5 Africa Northern America                 1.59  
 6 Africa Oceania                          0.264 
 7 Asia   Africa                           0.907 
 8 Asia   Asia                            23.8   
 9 Asia   Europe                           9.14  
10 Asia   Latin America and the Caribbean  0.233 
# ℹ 26 more rows
…
